commit e4060538f90d53501dd27fe2f3e15d77d0ee501a
Author: franco <francotorrico1999@gmail.com>
Date:   Sun Apr 12 02:01:44 2020 -0300

    contiene el pipe

commit 7c7ce85bd3b53b8525798512ae8b7178a10a2481
Author: franco <francotorrico1999@gmail.com>
Date:   Sat Apr 11 05:54:52 2020 -0300

    hice todos los cambiios del supermenu para hacer pull

commit c55ab203327971ec8600ee5419dd8474fe9aef21
Merge: c97a22b 93adbd6
Author: franco <francotorrico1999@gmail.com>
Date:   Sat Apr 11 05:48:05 2020 -0300

    Merge branch 'master' of https://gitlab.com/franco_t/primerpractico

commit c97a22bf8b89f0f4e77442cb7862f2586e241956
Author: franco <francotorrico1999@gmail.com>
Date:   Sat Apr 11 05:44:25 2020 -0300

    hice todo en supermenu de veirificar cambio

commit 93adbd6a450b7f9d023a1e9a993ace0d56be96ec
Author: franco torrico <francotorrico1999@gmail.com>
Date:   Sat Apr 11 07:56:48 2020 +0000

    Update queso.txt

commit db9ba218733d1f69a4a1036d1946547c4774dc7c
Author: franco <francotorrico1999@gmail.com>
Date:   Mon Apr 6 00:09:47 2020 -0300

    configure el nano

commit 3da4c3d3dd4ee2691b7be1e7841d8d96f49927b5
Merge: 24b81e7 5558f1a
Author: franco <francotorrico1999@gmail.com>
Date:   Mon Mar 30 07:49:21 2020 -0300

    Merge branch 'master' of https://gitlab.com/franco_t/primerpractico

commit 24b81e72f917539a0f3db2dc65b6249f9423cdbf
Author: franco <francotorrico1999@gmail.com>
Date:   Mon Mar 30 07:48:23 2020 -0300

    listo

commit 5558f1ae7df2a821ae711dd394ed06a5ae2bdaeb
Author: franco torrico <francotorrico1999@gmail.com>
Date:   Mon Mar 30 10:31:58 2020 +0000

    Update queso.txt

commit b5dbb97e5ca97cd563197227a22c113848287e53
Author: franco <francotorrico1999@gmail.com>
Date:   Mon Mar 30 06:15:24 2020 -0300

    borre cosas

commit e1f6ff392147058aafeae408aedd2773574a6736
Author: franco <francotorrico1999@gmail.com>
Date:   Mon Mar 30 05:55:26 2020 -0300

    hice cambios

commit 95d47b73b6aa56dd34a408ca7964c3f4520b7558
Author: franco <francotorrico1999@gmail.com>
Date:   Mon Mar 30 05:32:11 2020 -0300

    cambie el supermenu

commit c2e204d6b4f2ffee36800a844798cab496e0a8e3
Merge: 43f8610 fed4122
Author: franco <francotorrico1999@gmail.com>
Date:   Mon Mar 30 04:09:35 2020 -0300

    Merge branch 'master' of https://gitlab.com/franco_t/primerpractico

commit 43f86104844749747287b01caa043f4a313b64ac
Author: franco <francotorrico1999@gmail.com>
Date:   Mon Mar 30 04:09:15 2020 -0300

    se cambio algo

commit fed41226726303712726c9f79d76aed20f3a053c
Author: franco torrico <francotorrico1999@gmail.com>
Date:   Mon Mar 30 07:03:57 2020 +0000

    Update queso.txt

commit 3f1e797173f52b0aa270f96470a1859ff6091e13
Author: franco torrico <francotorrico1999@gmail.com>
Date:   Mon Mar 30 06:08:37 2020 +0000

    Update queso.txt

commit e2c0de4b31da81c6f81b5b48b84ca3b626267bd9
Author: franco <francotorrico1999@gmail.com>
Date:   Mon Mar 30 03:04:47 2020 -0300

    subi queso

commit 14a29cad7c72c1f36d9cf56d0153cc2c99e03260
Author: franco <francotorrico1999@gmail.com>
Date:   Mon Mar 30 02:34:31 2020 -0300

    hola
commit e4060538f90d53501dd27fe2f3e15d77d0ee501a
Author: franco <francotorrico1999@gmail.com>
Date:   Sun Apr 12 02:01:44 2020 -0300

    contiene el pipe

commit 7c7ce85bd3b53b8525798512ae8b7178a10a2481
Author: franco <francotorrico1999@gmail.com>
Date:   Sat Apr 11 05:54:52 2020 -0300

    hice todos los cambiios del supermenu para hacer pull

commit c55ab203327971ec8600ee5419dd8474fe9aef21
Merge: c97a22b 93adbd6
Author: franco <francotorrico1999@gmail.com>
Date:   Sat Apr 11 05:48:05 2020 -0300

    Merge branch 'master' of https://gitlab.com/franco_t/primerpractico

commit c97a22bf8b89f0f4e77442cb7862f2586e241956
Author: franco <francotorrico1999@gmail.com>
Date:   Sat Apr 11 05:44:25 2020 -0300

    hice todo en supermenu de veirificar cambio

commit 93adbd6a450b7f9d023a1e9a993ace0d56be96ec
Author: franco torrico <francotorrico1999@gmail.com>
Date:   Sat Apr 11 07:56:48 2020 +0000

    Update queso.txt

commit db9ba218733d1f69a4a1036d1946547c4774dc7c
Author: franco <francotorrico1999@gmail.com>
Date:   Mon Apr 6 00:09:47 2020 -0300

    configure el nano

commit 3da4c3d3dd4ee2691b7be1e7841d8d96f49927b5
Merge: 24b81e7 5558f1a
Author: franco <francotorrico1999@gmail.com>
Date:   Mon Mar 30 07:49:21 2020 -0300

    Merge branch 'master' of https://gitlab.com/franco_t/primerpractico

commit 24b81e72f917539a0f3db2dc65b6249f9423cdbf
Author: franco <francotorrico1999@gmail.com>
Date:   Mon Mar 30 07:48:23 2020 -0300

    listo

commit 5558f1ae7df2a821ae711dd394ed06a5ae2bdaeb
Author: franco torrico <francotorrico1999@gmail.com>
Date:   Mon Mar 30 10:31:58 2020 +0000

    Update queso.txt

commit b5dbb97e5ca97cd563197227a22c113848287e53
Author: franco <francotorrico1999@gmail.com>
Date:   Mon Mar 30 06:15:24 2020 -0300

    borre cosas

commit e1f6ff392147058aafeae408aedd2773574a6736
Author: franco <francotorrico1999@gmail.com>
Date:   Mon Mar 30 05:55:26 2020 -0300

    hice cambios

commit 95d47b73b6aa56dd34a408ca7964c3f4520b7558
Author: franco <francotorrico1999@gmail.com>
Date:   Mon Mar 30 05:32:11 2020 -0300

    cambie el supermenu

commit c2e204d6b4f2ffee36800a844798cab496e0a8e3
Merge: 43f8610 fed4122
Author: franco <francotorrico1999@gmail.com>
Date:   Mon Mar 30 04:09:35 2020 -0300

    Merge branch 'master' of https://gitlab.com/franco_t/primerpractico

commit 43f86104844749747287b01caa043f4a313b64ac
Author: franco <francotorrico1999@gmail.com>
Date:   Mon Mar 30 04:09:15 2020 -0300

    se cambio algo

commit fed41226726303712726c9f79d76aed20f3a053c
Author: franco torrico <francotorrico1999@gmail.com>
Date:   Mon Mar 30 07:03:57 2020 +0000

    Update queso.txt

commit 3f1e797173f52b0aa270f96470a1859ff6091e13
Author: franco torrico <francotorrico1999@gmail.com>
Date:   Mon Mar 30 06:08:37 2020 +0000

    Update queso.txt

commit e2c0de4b31da81c6f81b5b48b84ca3b626267bd9
Author: franco <francotorrico1999@gmail.com>
Date:   Mon Mar 30 03:04:47 2020 -0300

    subi queso

commit 14a29cad7c72c1f36d9cf56d0153cc2c99e03260
Author: franco <francotorrico1999@gmail.com>
Date:   Mon Mar 30 02:34:31 2020 -0300

    hola
commit e4060538f90d53501dd27fe2f3e15d77d0ee501a
Author: franco <francotorrico1999@gmail.com>
Date:   Sun Apr 12 02:01:44 2020 -0300

    contiene el pipe

commit 7c7ce85bd3b53b8525798512ae8b7178a10a2481
Author: franco <francotorrico1999@gmail.com>
Date:   Sat Apr 11 05:54:52 2020 -0300

    hice todos los cambiios del supermenu para hacer pull

commit c55ab203327971ec8600ee5419dd8474fe9aef21
Merge: c97a22b 93adbd6
Author: franco <francotorrico1999@gmail.com>
Date:   Sat Apr 11 05:48:05 2020 -0300

    Merge branch 'master' of https://gitlab.com/franco_t/primerpractico

commit c97a22bf8b89f0f4e77442cb7862f2586e241956
Author: franco <francotorrico1999@gmail.com>
Date:   Sat Apr 11 05:44:25 2020 -0300

    hice todo en supermenu de veirificar cambio

commit 93adbd6a450b7f9d023a1e9a993ace0d56be96ec
Author: franco torrico <francotorrico1999@gmail.com>
Date:   Sat Apr 11 07:56:48 2020 +0000

    Update queso.txt

commit db9ba218733d1f69a4a1036d1946547c4774dc7c
Author: franco <francotorrico1999@gmail.com>
Date:   Mon Apr 6 00:09:47 2020 -0300

    configure el nano

commit 3da4c3d3dd4ee2691b7be1e7841d8d96f49927b5
Merge: 24b81e7 5558f1a
Author: franco <francotorrico1999@gmail.com>
Date:   Mon Mar 30 07:49:21 2020 -0300

    Merge branch 'master' of https://gitlab.com/franco_t/primerpractico

commit 24b81e72f917539a0f3db2dc65b6249f9423cdbf
Author: franco <francotorrico1999@gmail.com>
Date:   Mon Mar 30 07:48:23 2020 -0300

    listo

commit 5558f1ae7df2a821ae711dd394ed06a5ae2bdaeb
Author: franco torrico <francotorrico1999@gmail.com>
Date:   Mon Mar 30 10:31:58 2020 +0000

    Update queso.txt

commit b5dbb97e5ca97cd563197227a22c113848287e53
Author: franco <francotorrico1999@gmail.com>
Date:   Mon Mar 30 06:15:24 2020 -0300

    borre cosas

commit e1f6ff392147058aafeae408aedd2773574a6736
Author: franco <francotorrico1999@gmail.com>
Date:   Mon Mar 30 05:55:26 2020 -0300

    hice cambios

commit 95d47b73b6aa56dd34a408ca7964c3f4520b7558
Author: franco <francotorrico1999@gmail.com>
Date:   Mon Mar 30 05:32:11 2020 -0300

    cambie el supermenu

commit c2e204d6b4f2ffee36800a844798cab496e0a8e3
Merge: 43f8610 fed4122
Author: franco <francotorrico1999@gmail.com>
Date:   Mon Mar 30 04:09:35 2020 -0300

    Merge branch 'master' of https://gitlab.com/franco_t/primerpractico

commit 43f86104844749747287b01caa043f4a313b64ac
Author: franco <francotorrico1999@gmail.com>
Date:   Mon Mar 30 04:09:15 2020 -0300

    se cambio algo

commit fed41226726303712726c9f79d76aed20f3a053c
Author: franco torrico <francotorrico1999@gmail.com>
Date:   Mon Mar 30 07:03:57 2020 +0000

    Update queso.txt

commit 3f1e797173f52b0aa270f96470a1859ff6091e13
Author: franco torrico <francotorrico1999@gmail.com>
Date:   Mon Mar 30 06:08:37 2020 +0000

    Update queso.txt

commit e2c0de4b31da81c6f81b5b48b84ca3b626267bd9
Author: franco <francotorrico1999@gmail.com>
Date:   Mon Mar 30 03:04:47 2020 -0300

    subi queso

commit 14a29cad7c72c1f36d9cf56d0153cc2c99e03260
Author: franco <francotorrico1999@gmail.com>
Date:   Mon Mar 30 02:34:31 2020 -0300

    hola
commit e4060538f90d53501dd27fe2f3e15d77d0ee501a
Author: franco <francotorrico1999@gmail.com>
Date:   Sun Apr 12 02:01:44 2020 -0300

    contiene el pipe

commit 7c7ce85bd3b53b8525798512ae8b7178a10a2481
Author: franco <francotorrico1999@gmail.com>
Date:   Sat Apr 11 05:54:52 2020 -0300

    hice todos los cambiios del supermenu para hacer pull

commit c55ab203327971ec8600ee5419dd8474fe9aef21
Merge: c97a22b 93adbd6
Author: franco <francotorrico1999@gmail.com>
Date:   Sat Apr 11 05:48:05 2020 -0300

    Merge branch 'master' of https://gitlab.com/franco_t/primerpractico

commit c97a22bf8b89f0f4e77442cb7862f2586e241956
Author: franco <francotorrico1999@gmail.com>
Date:   Sat Apr 11 05:44:25 2020 -0300

    hice todo en supermenu de veirificar cambio

commit 93adbd6a450b7f9d023a1e9a993ace0d56be96ec
Author: franco torrico <francotorrico1999@gmail.com>
Date:   Sat Apr 11 07:56:48 2020 +0000

    Update queso.txt

commit db9ba218733d1f69a4a1036d1946547c4774dc7c
Author: franco <francotorrico1999@gmail.com>
Date:   Mon Apr 6 00:09:47 2020 -0300

    configure el nano

commit 3da4c3d3dd4ee2691b7be1e7841d8d96f49927b5
Merge: 24b81e7 5558f1a
Author: franco <francotorrico1999@gmail.com>
Date:   Mon Mar 30 07:49:21 2020 -0300

    Merge branch 'master' of https://gitlab.com/franco_t/primerpractico

commit 24b81e72f917539a0f3db2dc65b6249f9423cdbf
Author: franco <francotorrico1999@gmail.com>
Date:   Mon Mar 30 07:48:23 2020 -0300

    listo

commit 5558f1ae7df2a821ae711dd394ed06a5ae2bdaeb
Author: franco torrico <francotorrico1999@gmail.com>
Date:   Mon Mar 30 10:31:58 2020 +0000

    Update queso.txt

commit b5dbb97e5ca97cd563197227a22c113848287e53
Author: franco <francotorrico1999@gmail.com>
Date:   Mon Mar 30 06:15:24 2020 -0300

    borre cosas

commit e1f6ff392147058aafeae408aedd2773574a6736
Author: franco <francotorrico1999@gmail.com>
Date:   Mon Mar 30 05:55:26 2020 -0300

    hice cambios

commit 95d47b73b6aa56dd34a408ca7964c3f4520b7558
Author: franco <francotorrico1999@gmail.com>
Date:   Mon Mar 30 05:32:11 2020 -0300

    cambie el supermenu

commit c2e204d6b4f2ffee36800a844798cab496e0a8e3
Merge: 43f8610 fed4122
Author: franco <francotorrico1999@gmail.com>
Date:   Mon Mar 30 04:09:35 2020 -0300

    Merge branch 'master' of https://gitlab.com/franco_t/primerpractico

commit 43f86104844749747287b01caa043f4a313b64ac
Author: franco <francotorrico1999@gmail.com>
Date:   Mon Mar 30 04:09:15 2020 -0300

    se cambio algo

commit fed41226726303712726c9f79d76aed20f3a053c
Author: franco torrico <francotorrico1999@gmail.com>
Date:   Mon Mar 30 07:03:57 2020 +0000

    Update queso.txt

commit 3f1e797173f52b0aa270f96470a1859ff6091e13
Author: franco torrico <francotorrico1999@gmail.com>
Date:   Mon Mar 30 06:08:37 2020 +0000

    Update queso.txt

commit e2c0de4b31da81c6f81b5b48b84ca3b626267bd9
Author: franco <francotorrico1999@gmail.com>
Date:   Mon Mar 30 03:04:47 2020 -0300

    subi queso

commit 14a29cad7c72c1f36d9cf56d0153cc2c99e03260
Author: franco <francotorrico1999@gmail.com>
Date:   Mon Mar 30 02:34:31 2020 -0300

    hola
commit e4060538f90d53501dd27fe2f3e15d77d0ee501a
Author: franco <francotorrico1999@gmail.com>
Date:   Sun Apr 12 02:01:44 2020 -0300

    contiene el pipe

commit 7c7ce85bd3b53b8525798512ae8b7178a10a2481
Author: franco <francotorrico1999@gmail.com>
Date:   Sat Apr 11 05:54:52 2020 -0300

    hice todos los cambiios del supermenu para hacer pull

commit c55ab203327971ec8600ee5419dd8474fe9aef21
Merge: c97a22b 93adbd6
Author: franco <francotorrico1999@gmail.com>
Date:   Sat Apr 11 05:48:05 2020 -0300

    Merge branch 'master' of https://gitlab.com/franco_t/primerpractico

commit c97a22bf8b89f0f4e77442cb7862f2586e241956
Author: franco <francotorrico1999@gmail.com>
Date:   Sat Apr 11 05:44:25 2020 -0300

    hice todo en supermenu de veirificar cambio

commit 93adbd6a450b7f9d023a1e9a993ace0d56be96ec
Author: franco torrico <francotorrico1999@gmail.com>
Date:   Sat Apr 11 07:56:48 2020 +0000

    Update queso.txt

commit db9ba218733d1f69a4a1036d1946547c4774dc7c
Author: franco <francotorrico1999@gmail.com>
Date:   Mon Apr 6 00:09:47 2020 -0300

    configure el nano

commit 3da4c3d3dd4ee2691b7be1e7841d8d96f49927b5
Merge: 24b81e7 5558f1a
Author: franco <francotorrico1999@gmail.com>
Date:   Mon Mar 30 07:49:21 2020 -0300

    Merge branch 'master' of https://gitlab.com/franco_t/primerpractico

commit 24b81e72f917539a0f3db2dc65b6249f9423cdbf
Author: franco <francotorrico1999@gmail.com>
Date:   Mon Mar 30 07:48:23 2020 -0300

    listo

commit 5558f1ae7df2a821ae711dd394ed06a5ae2bdaeb
Author: franco torrico <francotorrico1999@gmail.com>
Date:   Mon Mar 30 10:31:58 2020 +0000

    Update queso.txt

commit b5dbb97e5ca97cd563197227a22c113848287e53
Author: franco <francotorrico1999@gmail.com>
Date:   Mon Mar 30 06:15:24 2020 -0300

    borre cosas

commit e1f6ff392147058aafeae408aedd2773574a6736
Author: franco <francotorrico1999@gmail.com>
Date:   Mon Mar 30 05:55:26 2020 -0300

    hice cambios

commit 95d47b73b6aa56dd34a408ca7964c3f4520b7558
Author: franco <francotorrico1999@gmail.com>
Date:   Mon Mar 30 05:32:11 2020 -0300

    cambie el supermenu

commit c2e204d6b4f2ffee36800a844798cab496e0a8e3
Merge: 43f8610 fed4122
Author: franco <francotorrico1999@gmail.com>
Date:   Mon Mar 30 04:09:35 2020 -0300

    Merge branch 'master' of https://gitlab.com/franco_t/primerpractico

commit 43f86104844749747287b01caa043f4a313b64ac
Author: franco <francotorrico1999@gmail.com>
Date:   Mon Mar 30 04:09:15 2020 -0300

    se cambio algo

commit fed41226726303712726c9f79d76aed20f3a053c
Author: franco torrico <francotorrico1999@gmail.com>
Date:   Mon Mar 30 07:03:57 2020 +0000

    Update queso.txt

commit 3f1e797173f52b0aa270f96470a1859ff6091e13
Author: franco torrico <francotorrico1999@gmail.com>
Date:   Mon Mar 30 06:08:37 2020 +0000

    Update queso.txt

commit e2c0de4b31da81c6f81b5b48b84ca3b626267bd9
Author: franco <francotorrico1999@gmail.com>
Date:   Mon Mar 30 03:04:47 2020 -0300

    subi queso

commit 14a29cad7c72c1f36d9cf56d0153cc2c99e03260
Author: franco <francotorrico1999@gmail.com>
Date:   Mon Mar 30 02:34:31 2020 -0300

    hola
commit e4060538f90d53501dd27fe2f3e15d77d0ee501a
Author: franco <francotorrico1999@gmail.com>
Date:   Sun Apr 12 02:01:44 2020 -0300

    contiene el pipe

commit 7c7ce85bd3b53b8525798512ae8b7178a10a2481
Author: franco <francotorrico1999@gmail.com>
Date:   Sat Apr 11 05:54:52 2020 -0300

    hice todos los cambiios del supermenu para hacer pull

commit c55ab203327971ec8600ee5419dd8474fe9aef21
Merge: c97a22b 93adbd6
Author: franco <francotorrico1999@gmail.com>
Date:   Sat Apr 11 05:48:05 2020 -0300

    Merge branch 'master' of https://gitlab.com/franco_t/primerpractico

commit c97a22bf8b89f0f4e77442cb7862f2586e241956
Author: franco <francotorrico1999@gmail.com>
Date:   Sat Apr 11 05:44:25 2020 -0300

    hice todo en supermenu de veirificar cambio

commit 93adbd6a450b7f9d023a1e9a993ace0d56be96ec
Author: franco torrico <francotorrico1999@gmail.com>
Date:   Sat Apr 11 07:56:48 2020 +0000

    Update queso.txt

commit db9ba218733d1f69a4a1036d1946547c4774dc7c
Author: franco <francotorrico1999@gmail.com>
Date:   Mon Apr 6 00:09:47 2020 -0300

    configure el nano

commit 3da4c3d3dd4ee2691b7be1e7841d8d96f49927b5
Merge: 24b81e7 5558f1a
Author: franco <francotorrico1999@gmail.com>
Date:   Mon Mar 30 07:49:21 2020 -0300

    Merge branch 'master' of https://gitlab.com/franco_t/primerpractico

commit 24b81e72f917539a0f3db2dc65b6249f9423cdbf
Author: franco <francotorrico1999@gmail.com>
Date:   Mon Mar 30 07:48:23 2020 -0300

    listo

commit 5558f1ae7df2a821ae711dd394ed06a5ae2bdaeb
Author: franco torrico <francotorrico1999@gmail.com>
Date:   Mon Mar 30 10:31:58 2020 +0000

    Update queso.txt

commit b5dbb97e5ca97cd563197227a22c113848287e53
Author: franco <francotorrico1999@gmail.com>
Date:   Mon Mar 30 06:15:24 2020 -0300

    borre cosas

commit e1f6ff392147058aafeae408aedd2773574a6736
Author: franco <francotorrico1999@gmail.com>
Date:   Mon Mar 30 05:55:26 2020 -0300

    hice cambios

commit 95d47b73b6aa56dd34a408ca7964c3f4520b7558
Author: franco <francotorrico1999@gmail.com>
Date:   Mon Mar 30 05:32:11 2020 -0300

    cambie el supermenu

commit c2e204d6b4f2ffee36800a844798cab496e0a8e3
Merge: 43f8610 fed4122
Author: franco <francotorrico1999@gmail.com>
Date:   Mon Mar 30 04:09:35 2020 -0300

    Merge branch 'master' of https://gitlab.com/franco_t/primerpractico

commit 43f86104844749747287b01caa043f4a313b64ac
Author: franco <francotorrico1999@gmail.com>
Date:   Mon Mar 30 04:09:15 2020 -0300

    se cambio algo

commit fed41226726303712726c9f79d76aed20f3a053c
Author: franco torrico <francotorrico1999@gmail.com>
Date:   Mon Mar 30 07:03:57 2020 +0000

    Update queso.txt

commit 3f1e797173f52b0aa270f96470a1859ff6091e13
Author: franco torrico <francotorrico1999@gmail.com>
Date:   Mon Mar 30 06:08:37 2020 +0000

    Update queso.txt

commit e2c0de4b31da81c6f81b5b48b84ca3b626267bd9
Author: franco <francotorrico1999@gmail.com>
Date:   Mon Mar 30 03:04:47 2020 -0300

    subi queso

commit 14a29cad7c72c1f36d9cf56d0153cc2c99e03260
Author: franco <francotorrico1999@gmail.com>
Date:   Mon Mar 30 02:34:31 2020 -0300

    hola
commit e4060538f90d53501dd27fe2f3e15d77d0ee501a
Author: franco <francotorrico1999@gmail.com>
Date:   Sun Apr 12 02:01:44 2020 -0300

    contiene el pipe

commit 7c7ce85bd3b53b8525798512ae8b7178a10a2481
Author: franco <francotorrico1999@gmail.com>
Date:   Sat Apr 11 05:54:52 2020 -0300

    hice todos los cambiios del supermenu para hacer pull

commit c55ab203327971ec8600ee5419dd8474fe9aef21
Merge: c97a22b 93adbd6
Author: franco <francotorrico1999@gmail.com>
Date:   Sat Apr 11 05:48:05 2020 -0300

    Merge branch 'master' of https://gitlab.com/franco_t/primerpractico

commit c97a22bf8b89f0f4e77442cb7862f2586e241956
Author: franco <francotorrico1999@gmail.com>
Date:   Sat Apr 11 05:44:25 2020 -0300

    hice todo en supermenu de veirificar cambio

commit 93adbd6a450b7f9d023a1e9a993ace0d56be96ec
Author: franco torrico <francotorrico1999@gmail.com>
Date:   Sat Apr 11 07:56:48 2020 +0000

    Update queso.txt

commit db9ba218733d1f69a4a1036d1946547c4774dc7c
Author: franco <francotorrico1999@gmail.com>
Date:   Mon Apr 6 00:09:47 2020 -0300

    configure el nano

commit 3da4c3d3dd4ee2691b7be1e7841d8d96f49927b5
Merge: 24b81e7 5558f1a
Author: franco <francotorrico1999@gmail.com>
Date:   Mon Mar 30 07:49:21 2020 -0300

    Merge branch 'master' of https://gitlab.com/franco_t/primerpractico

commit 24b81e72f917539a0f3db2dc65b6249f9423cdbf
Author: franco <francotorrico1999@gmail.com>
Date:   Mon Mar 30 07:48:23 2020 -0300

    listo

commit 5558f1ae7df2a821ae711dd394ed06a5ae2bdaeb
Author: franco torrico <francotorrico1999@gmail.com>
Date:   Mon Mar 30 10:31:58 2020 +0000

    Update queso.txt

commit b5dbb97e5ca97cd563197227a22c113848287e53
Author: franco <francotorrico1999@gmail.com>
Date:   Mon Mar 30 06:15:24 2020 -0300

    borre cosas

commit e1f6ff392147058aafeae408aedd2773574a6736
Author: franco <francotorrico1999@gmail.com>
Date:   Mon Mar 30 05:55:26 2020 -0300

    hice cambios

commit 95d47b73b6aa56dd34a408ca7964c3f4520b7558
Author: franco <francotorrico1999@gmail.com>
Date:   Mon Mar 30 05:32:11 2020 -0300

    cambie el supermenu

commit c2e204d6b4f2ffee36800a844798cab496e0a8e3
Merge: 43f8610 fed4122
Author: franco <francotorrico1999@gmail.com>
Date:   Mon Mar 30 04:09:35 2020 -0300

    Merge branch 'master' of https://gitlab.com/franco_t/primerpractico

commit 43f86104844749747287b01caa043f4a313b64ac
Author: franco <francotorrico1999@gmail.com>
Date:   Mon Mar 30 04:09:15 2020 -0300

    se cambio algo

commit fed41226726303712726c9f79d76aed20f3a053c
Author: franco torrico <francotorrico1999@gmail.com>
Date:   Mon Mar 30 07:03:57 2020 +0000

    Update queso.txt

commit 3f1e797173f52b0aa270f96470a1859ff6091e13
Author: franco torrico <francotorrico1999@gmail.com>
Date:   Mon Mar 30 06:08:37 2020 +0000

    Update queso.txt

commit e2c0de4b31da81c6f81b5b48b84ca3b626267bd9
Author: franco <francotorrico1999@gmail.com>
Date:   Mon Mar 30 03:04:47 2020 -0300

    subi queso

commit 14a29cad7c72c1f36d9cf56d0153cc2c99e03260
Author: franco <francotorrico1999@gmail.com>
Date:   Mon Mar 30 02:34:31 2020 -0300

    hola
